module qlova.org/seed

go 1.13

require (
	github.com/NYTimes/gziphandler v1.1.1
	github.com/gomarkdown/markdown v0.0.0-20200824053859-8c8b3816f167
	github.com/google/uuid v1.1.1
	github.com/gorilla/websocket v1.4.2
	github.com/microcosm-cc/bluemonday v1.0.4
	github.com/qlova/seed v0.2.2
	github.com/qlova/seeds v0.2.2
	github.com/stripe/stripe-go/v71 v71.40.0
	github.com/tdewolff/minify v2.3.6+incompatible
	github.com/tdewolff/minify/v2 v2.7.3
	github.com/tdewolff/parse v2.3.4+incompatible
	qlova.org/should v1.0.2
	qlova.tech/rgb v1.0.1
)
